assignment14.knit
…
primarily rockets, makes sense because of spacex

Choose a location then pick a trending keyword/hashtag in the
location. Download the data associated with the keyword/hashtag. Plot at
least 5 plots to visualize the data associated with the keyword/hashtag.
All plots should have titles and captions.

get_trends('London')

## # A tibble: 50 x 9
##    trend             url   promo~1 query tweet~2 place woeid as_of              
##    <chr>             <chr> <lgl>   <chr>   <int> <chr> <int> <dttm>             
##  1 #PORURU           http~ NA      %23P~   52042 Lond~ 44418 2022-11-29 03:42:49
##  2 #24hoursinpolice~ http~ NA      %232~      NA Lond~ 44418 2022-11-29 03:42:49
##  3 #HarshRealityNos~ http~ NA      %23H~      NA Lond~ 44418 2022-11-29 03:42:49
##  4 #ImACelebrity     http~ NA      %23I~   28456 Lond~ 44418 2022-11-29 03:42:49
##  5 #PLTPinkMonday    http~ NA      %23P~   14071 Lond~ 44418 2022-11-29 03:42:49
##  6 Uruguay           http~ NA      Urug~  379995 Lond~ 44418 2022-11-29 03:42:49
##  7 FA Cup            http~ NA      %22F~   15108 Lond~ 44418 2022-11-29 03:42:49
##  8 Casemiro          http~ NA      Case~  429211 Lond~ 44418 2022-11-29 03:42:49
##  9 Fernandes         http~ NA      Fern~  145426 Lond~ 44418 2022-11-29 03:42:49
## 10 Ronaldo           http~ NA      Rona~  432910 Lond~ 44418 2022-11-29 03:42:49
## # ... with 40 more rows, 1 more variable: created_at <dttm>, and abbreviated
## #   variable names 1: promoted_content, 2: tweet_volume
…
